{
    "self": {
        "sections": [
            {
                "name": "Ensino Fundamental",
                "inner": ["FM", "FC", "FH", "FP"]
            },
            {
                "name": "Ensino Médio",
                "inner": ["MM", "MC", "MH", "MP"]
            }
        ]
    },
    "FM": {
        "self": {
            "name": "Matemática",
            "inner": ["1","2","3","4","5","6","7","8","9"],
            "color": "#f7b602"
        },
        "1": {
            "src": "./f_m_1.pdf",
            "name": "Importância da matemática",
            "about": "Compreender a Matemática como construção humana, relacionando o seu desenvolvimento com a transformação da sociedade."
        },
        "2": {
            "src": "./f_m_2.pdf",
            "name": "Regra de Três e Lógica",
            "about": "Ampliar formas de raciocínio e processos mentais por meio de indução, dedução, analogia e estimativa, utilizando conceitos e procedimentos matemáticos."
        },
        "3": {
            "src": "./f_m_3.pdf",
            "name": "Números Naturais, Inteiros e Racionais",
            "about": "Construir significados e ampliar os já existentes para os números naturais, inteiros e racionais."
        },
        "4": {
            "src": "./f_m_4.pdf",
            "name": "Geometria",
            "about": "Utilizar o conhecimento geométrico para realizar a leitura e a representação da realidade, e agir sobre ela."
        },
        "5": {
            "src": "./f_m_5.pdf",
            "name": "Medidas",
            "about": "Construir e ampliar  noções de grandezas e medidas para a compreensão da realidade e a solução de problemas do cotidiano."
        },
        "6": {
            "src": "./f_m_6.pdf",
            "name": "Proporção e Ordem de Grandeza",
            "about": "Construir e ampliar noções de variação de grandeza para a compreensão da realidade e a solução de problemas do cotidiano. "
        },
        "7": {
            "src": "./f_m_7.pdf",
            "name": "Algebra",
            "about": "Construir e utilizar conceitos algébricos para modelar e resolver problemas."
        },
        "8": {
            "src": "./f_m_8.pdf",
            "name": "Estatítica",
            "about": "Interpretar informações de natureza científica e social obtidas da leitura de gráficos e tabelas, realizando previsão de tendência, extrapolação, interpolação e interpretação."
        },
        "9": {
            "src": "./f_m_9.pdf",
            "name": "Notação Científica e Resolução de Prolemas",
            "about": "Compreender conceitos, estratégias e situações matemáticas numéricas para aplicá-los a situações diversas no contexto das ciências, da tecnologia e da atividade cotidiana."
        }
    },
    "FC": {
        "self": {
            "name": "Ciências",
            "inner": ["1","2","3","4","5","6","7","8","9"],
            "color": "#f7b602"
        },
        "1": {
            "src": "./f_c_1.pdf",
            "name": "História da Ciência",
            "about": "Compreender a ciência como atividade humana, histórica, associada a aspectos de ordem social, econômica, política e cultural."
        },
        "2": {
            "src": "./f_c_2.pdf",
            "name": "Impactos da Ciência na Vida Moderna",
            "about": "Compreender conhecimentos científicos e tecnológicos como meios para suprir necessidades humanas, identificando riscos e benefícios de suas aplicações."
        },
        "3": {
            "src": "./f_c_3.pdf",
            "name": "Meio Ambiente",
            "about": " Compreender a natureza como um sistema dinâmico e o ser humano, em sociedade, como um de seus agentes de transformações.."
        },
        "4": {
            "src": "./f_c_4.pdf",
            "name": "Saúde e Segurança",
            "about": " Compreender a saúde como bem pessoal e ambiental que deve ser promovido por meio de diferentes agentes, de forma individual e coletiva."
        },
        "5": {
            "src": "./f_c_5.pdf",
            "name": "Partes do Corpo Humano e Reprodução",
            "about": "Compreender o próprio corpo e a sexualidade como elementos de realização humana, valorizando e desenvolvendo a formação de hábitos de auto-cuidado, de auto-estima e de respeito ao outro."
        },
        "6": {
            "src": "./f_c_6.pdf",
            "name": "Estados da Matéria e Suas Aplicações",
            "about": "Aplicar conhecimentos e tecnologias associadas às ciências naturais em diferentes contextos relevantes para a vida."
        },
        "7": {
            "src": "./f_c_7.pdf",
            "name": "Processos Naturais e Humanos",
            "about": "Diagnosticar problemas, formular questões e propor soluções a partir de conhecimentos das ciências naturais em diferentes contextos."
        },
        "8": {
            "src": "./f_c_8.pdf",
            "name": "Sistema Solar",
            "about": " Compreender o Sistema Solar em sua configuração cósmica e a Terra em sua constituição geológica e planetária."
        },
        "9": {
            "src": "./f_c_9.pdf",
            "name": "Recursos da Natureza",
            "about": "Reconhecer na natureza e avaliar a disponibilidade de recursos materiais e energéticos e os processos para sua obtenção e utilização."
        }
    },
    "FH": {
        "self": {
            "name": "História e Geografia",
            "inner": ["1","2","3","4","5","6","7","8","9"],
            "color": "#f7b602"
        }
    },
    "FP": {
        "self": {
            "name": "Português, Artes e E.F.",
            "inner": ["1","2","3","4","5","6","7","8","9"],
            "color": "#f7b602"
        }
    },
    "MM": {
        "self": {
            "name": "Matemática",
            "inner": ["1","2","3","4","5","6","7","8","9"],
            "color": "#f7b602"
        }
    },
    "MC": {
        "self": {
            "name": "Ciências da Natureza",
            "inner": ["1","2","3","4","5","6","7","8","9"],
            "color": "#f7b602"
        }
    },
    "MH": {
        "self": {
            "name": "Ciências Humanas",
            "inner": ["1","2","3","4","5","6","7","8","9"],
            "color": "#f7b602"
        }
    },
    "MP": {
        "self": {
            "name": "Português e Linguagens",
            "inner": ["1","2","3","4","5","6","7","8","9"],
            "color": "#d90770"
        }
    }
}