<?xml version="1.0" encoding="utf-8"?>
<!-- Generator: Adobe Illustrator 16.0.0, SVG Export Plug-In . SVG Version: 6.00 Build 0)  -->
<!DOCTYPE svg PUBLIC "-//W3C//DTD SVG 1.1//EN" "http://www.w3.org/Graphics/SVG/1.1/DTD/svg11.dtd">
<svg version="1.1"
	 id="Layer_1" xmlns:dc="http://purl.org/dc/elements/1.1/" xmlns:cc="http://creativecommons.org/ns#" xmlns:rdf="http://www.w3.org/1999/02/22-rdf-syntax-ns#" xmlns:svg="http://www.w3.org/2000/svg" xmlns:sodipodi="http://sodipodi.sourceforge.net/DTD/sodipodi-0.dtd" xmlns:inkscape="http://www.inkscape.org/namespaces/inkscape"
	 xmlns="http://www.w3.org/2000/svg" xmlns:xlink="http://www.w3.org/1999/xlink" x="0px" y="0px" width="4000px" height="4000px"
	 viewBox="0 0 4000 4000" enable-background="new 0 0 4000 4000" xml:space="preserve">
<g transform="translate(0,-952.36218)">
	<path fill="#FFFFFF" d="M2640,1512.362c-145.617,0-259.814,84.207-334,202c-128.603,192.031-313.972,433.689-520,663
		c-10.558-15.053-22.229-29.342-35-42c-51.365-50.908-119.746-87-199-87c-125.804,0-224,104.986-224,224c0,22.396,3.692,43.58,9,64
		h-105c-55.196,0-96,50.745-96,96s45.66,96,96,96h209c-272.236,254.545-534.127,454.168-742,592c-85.375,56.604-107,156.108-107,240
		c0,214.835,110.715,411.463,265,560c176.793,138.854,375.699,272,567,272c95.231,0,183.898-23.17,240-107
		c170.719-255.102,422.166-608.711,756-946c293.722-296.771,603.614-541.007,846-701c78.964-45.59,142-123.352,142-198
		c0-139.729-102.736-256.22-188-349l64-64c31.596-32.15,35.621-87.625,9-124C3152.149,1712.041,2924.398,1512.362,2640,1512.362z
		 M2640,1704.362c164.299,0,326.692,115.593,445,251l-4,4c-34.4-29.123-67.604-55.451-95-76c-17.923-13.418-40.648-20.272-63-19
		c-23.477,1.197-46.382,11.378-63,28l-247,247c-83.021-115.094-129.722-235.254-133-307
		C2480,1748.58,2571.302,1705.213,2640,1704.362z M2324,2020.362c114.604,259.913,361.268,523.544,618,614
		c-204.818,152.132-431.998,342.402-652,564c-123.414-15.256-243.188-111.492-318-186c-91-97.983-177.861-200.872-215-323
		C1969.254,2473.762,2166.535,2234.216,2324,2020.362z M2935,2088.362c105.471,93.462,262.182,202.379,280,354
		c-12.264,24.598-62.763,38.639-95,30c-122.686,0-264.879-91.749-375-194L2935,2088.362z M1552,2440.362
		c16.067,0,43.194,10.381,64,31c20.804,20.619,32,47.658,32,65c0,17.063-10.186,32-32,32c-16.068,0-43.196-11.381-64-32
		c-20.806-20.619-32-46.659-32-64C1520,2455.299,1530.184,2440.362,1552,2440.362z M1584,2858.362v222
		c-0.785,50.266,44.233,96.715,94.5,97.5c50.266,0.785,96.713-44.234,97.5-94.5c19.107,21.471,39.061,42.844,60,64
		c91.188,87.591,198.203,166.781,303,210c-274.39,300.172-485.566,597.287-634,819c-3.496-1.342-39.084,21.253-77,23
		c-147.191-14.857-312.662-97.295-437-217c-125.718-121.03-207-275.107-207-422c0-54.464,10.184-72.829,21-80
		C1024.586,3334.764,1298.811,3126.255,1584,2858.362z"/>
</g>
</svg>
